\relax 
\providecommand\hyper@newdestlabel[2]{}
\catcode `"\active 
\catcode `<\active 
\catcode `>\active 
\@nameuse{es@quoting}
\providecommand\HyperFirstAtBeginDocument{\AtBeginDocument}
\HyperFirstAtBeginDocument{\ifx\hyper@anchor\@undefined
\global\let\oldcontentsline\contentsline
\gdef\contentsline#1#2#3#4{\oldcontentsline{#1}{#2}{#3}}
\global\let\oldnewlabel\newlabel
\gdef\newlabel#1#2{\newlabelxx{#1}#2}
\gdef\newlabelxx#1#2#3#4#5#6{\oldnewlabel{#1}{{#2}{#3}}}
\AtEndDocument{\ifx\hyper@anchor\@undefined
\let\contentsline\oldcontentsline
\let\newlabel\oldnewlabel
\fi}
\fi}
\global\let\hyper@last\relax 
\gdef\HyperFirstAtBeginDocument#1{#1}
\providecommand\HyField@AuxAddToFields[1]{}
\providecommand\HyField@AuxAddToCoFields[2]{}
\babel@aux{spanish}{}
\@writefile{toc}{\contentsline {chapter}{\numberline {1}Introducci\IeC {\'o}n}{1}{chapter.1}\protected@file@percent }
\@writefile{lof}{\addvspace {10\p@ }}
\@writefile{lot}{\addvspace {10\p@ }}
\@writefile{toc}{\contentsline {section}{\numberline {1.1}Requerimiento Funcional}{1}{section.1.1}\protected@file@percent }
\@writefile{toc}{\contentsline {chapter}{\numberline {2}Documentaci\IeC {\'o}n del proceso}{2}{chapter.2}\protected@file@percent }
\@writefile{lof}{\addvspace {10\p@ }}
\@writefile{lot}{\addvspace {10\p@ }}
\@writefile{toc}{\contentsline {section}{\numberline {2.1}Misi\IeC {\'o}n}{2}{section.2.1}\protected@file@percent }
\@writefile{toc}{\contentsline {section}{\numberline {2.2}Visi\IeC {\'o}n}{2}{section.2.2}\protected@file@percent }
\@writefile{toc}{\contentsline {section}{\numberline {2.3}Pol\IeC {\'\i }ticas}{2}{section.2.3}\protected@file@percent }
\@writefile{toc}{\contentsline {section}{\numberline {2.4}Reglas de negocio}{2}{section.2.4}\protected@file@percent }
\@writefile{toc}{\contentsline {section}{\numberline {2.5}\IeC {\'A}reas y actores}{2}{section.2.5}\protected@file@percent }
\@writefile{toc}{\contentsline {section}{\numberline {2.6}BPMN}{2}{section.2.6}\protected@file@percent }
\@writefile{toc}{\contentsline {chapter}{\numberline {3}Modelo de Negocios}{3}{chapter.3}\protected@file@percent }
\@writefile{lof}{\addvspace {10\p@ }}
\@writefile{lot}{\addvspace {10\p@ }}
\@writefile{toc}{\contentsline {section}{\numberline {3.1}Modelo de entidades del negocio}{3}{section.3.1}\protected@file@percent }
\@writefile{lof}{\contentsline {figure}{\numberline {3.1}{\ignorespaces UML Diagrama de clases}}{3}{figure.3.1}\protected@file@percent }
\newlabel{fig:UMLDiagramadeClases}{{3.1}{3}{UML Diagrama de clases}{figure.3.1}{}}
\@writefile{toc}{\contentsline {section}{\numberline {3.2}Descripci\'on de entidades del negocio}{3}{section.3.2}\protected@file@percent }
\@writefile{toc}{\contentsline {subsection}{\numberline {3.2.1}Atributos de ``Alumno''}{4}{subsection.3.2.1}\protected@file@percent }
\@writefile{toc}{\contentsline {chapter}{\numberline {4}Modelo de datos}{5}{chapter.4}\protected@file@percent }
\@writefile{lof}{\addvspace {10\p@ }}
\@writefile{lot}{\addvspace {10\p@ }}
\@writefile{toc}{\contentsline {chapter}{\numberline {5}Cat\IeC {\'a}logo de mensajes}{6}{chapter.5}\protected@file@percent }
\@writefile{lof}{\addvspace {10\p@ }}
\@writefile{lot}{\addvspace {10\p@ }}
\@writefile{toc}{\contentsline {section}{\numberline {5.1}Cat\IeC {\'a}logo de Mensajes}{6}{section.5.1}\protected@file@percent }
\@writefile{toc}{\contentsline {chapter}{\numberline {6}Reglas de negocio}{8}{chapter.6}\protected@file@percent }
\@writefile{lof}{\addvspace {10\p@ }}
\@writefile{lot}{\addvspace {10\p@ }}
\@writefile{toc}{\contentsline {section}{\numberline {6.1}Reglas de Negocio}{8}{section.6.1}\protected@file@percent }
\@writefile{toc}{\contentsline {chapter}{\numberline {7}Pantallas}{9}{chapter.7}\protected@file@percent }
\@writefile{lof}{\addvspace {10\p@ }}
\@writefile{lot}{\addvspace {10\p@ }}
\@writefile{toc}{\contentsline {section}{\numberline {7.1}UI-01.1: Catalogo de unidades aprendizaje registradas.}{9}{section.7.1}\protected@file@percent }
\@writefile{lof}{\contentsline {figure}{\numberline {7.1}{\ignorespaces UI01-1 Gestion de unidades de aprendizaje}}{9}{figure.7.1}\protected@file@percent }
\newlabel{UI01-1}{{7.1}{9}{UI01-1 Gestion de unidades de aprendizaje}{figure.7.1}{}}
\@writefile{toc}{\contentsline {section}{\numberline {7.2}UI01.1-1: Registro de Unidad de Aprendizaje en L\IeC {\'\i }nea}{10}{section.7.2}\protected@file@percent }
\@writefile{lof}{\contentsline {figure}{\numberline {7.2}{\ignorespaces UI01.1-1 Registrar unidad de aprendizaje}}{10}{figure.7.2}\protected@file@percent }
\newlabel{UI01.1-1}{{7.2}{10}{UI01.1-1 Registrar unidad de aprendizaje}{figure.7.2}{}}
\@writefile{toc}{\contentsline {section}{\numberline {7.3}UI01.1-2: Mensaje de confirmaci\IeC {\'o}n de registro}{11}{section.7.3}\protected@file@percent }
\@writefile{lof}{\contentsline {figure}{\numberline {7.3}{\ignorespaces UI01.1-2 Confirmaci\IeC {\'o}n de nueva unidad de aprendizaje en l\IeC {\'\i }nea}}{11}{figure.7.3}\protected@file@percent }
\newlabel{UI01.1-2}{{7.3}{11}{UI01.1-2 Confirmación de nueva unidad de aprendizaje en línea}{figure.7.3}{}}
\@writefile{toc}{\contentsline {section}{\numberline {7.4}UI01.2-1: Consultar unidad de aprendizaje}{11}{section.7.4}\protected@file@percent }
\@writefile{lof}{\contentsline {figure}{\numberline {7.4}{\ignorespaces UI01.2-1 Cosultar unidad de aprendizaje}}{12}{figure.7.4}\protected@file@percent }
\newlabel{UI01.2-1}{{7.4}{12}{UI01.2-1 Cosultar unidad de aprendizaje}{figure.7.4}{}}
\@writefile{toc}{\contentsline {section}{\numberline {7.5}UI01.2-2: PDF de la unidad de aprendizaje}{12}{section.7.5}\protected@file@percent }
\@writefile{toc}{\contentsline {section}{\numberline {7.6}UI01.3-1: Mensaje de confirmaci\IeC {\'o}n de eliminaci\IeC {\'o}n de Unidad de Aprendizaje}{12}{section.7.6}\protected@file@percent }
\@writefile{lof}{\contentsline {figure}{\numberline {7.5}{\ignorespaces UI01.2-1 PDF de la unidad de aprendizaje}}{13}{figure.7.5}\protected@file@percent }
\newlabel{UI01.2-1}{{7.5}{13}{UI01.2-1 PDF de la unidad de aprendizaje}{figure.7.5}{}}
\@writefile{lof}{\contentsline {figure}{\numberline {7.6}{\ignorespaces UI01.3-1 Confirmaci\IeC {\'o}n de eliminaci\IeC {\'o}n de Unidad de Aprendizaje}}{13}{figure.7.6}\protected@file@percent }
\newlabel{UI01.3-1}{{7.6}{13}{UI01.3-1 Confirmación de eliminación de Unidad de Aprendizaje}{figure.7.6}{}}
\@writefile{toc}{\contentsline {subsection}{\numberline {7.6.1}IUIF02-01 Pantalla de Unidades Acad\IeC {\'e}micas}{14}{subsection.7.6.1}\protected@file@percent }
\@writefile{toc}{\contentsline {subsubsection}{Objetivo}{14}{subsubsection*.1}\protected@file@percent }
\@writefile{toc}{\contentsline {subsubsection}{Dise\~no}{14}{subsubsection*.2}\protected@file@percent }
\@writefile{lof}{\contentsline {figure}{\numberline {7.7}{\ignorespaces IUIF02-01 Pantalla de Unidades Acad\IeC {\'e}micas}}{14}{figure.7.7}\protected@file@percent }
\newlabel{IUIF02-01}{{7.7}{14}{IUIF02-01 Pantalla de Unidades Académicas}{figure.7.7}{}}
\@writefile{toc}{\contentsline {subsubsection}{Salidas}{15}{subsubsection*.3}\protected@file@percent }
\@writefile{toc}{\contentsline {subsubsection}{Entradas}{15}{subsubsection*.4}\protected@file@percent }
\@writefile{toc}{\contentsline {subsubsection}{Comandos}{15}{subsubsection*.5}\protected@file@percent }
\@writefile{toc}{\contentsline {subsection}{\numberline {7.6.2}IUIF02-02 Pantalla de Programas Acad\IeC {\'e}micos}{15}{subsection.7.6.2}\protected@file@percent }
\@writefile{toc}{\contentsline {subsubsection}{Objetivo}{15}{subsubsection*.6}\protected@file@percent }
\@writefile{toc}{\contentsline {subsubsection}{Dise\~no}{15}{subsubsection*.7}\protected@file@percent }
\@writefile{lof}{\contentsline {figure}{\numberline {7.8}{\ignorespaces IUIF02-02 Pantalla de Programas Acad\IeC {\'e}micos}}{15}{figure.7.8}\protected@file@percent }
\newlabel{IUIF02-02}{{7.8}{15}{IUIF02-02 Pantalla de Programas Académicos}{figure.7.8}{}}
\@writefile{toc}{\contentsline {subsubsection}{Salidas}{16}{subsubsection*.8}\protected@file@percent }
\@writefile{toc}{\contentsline {subsubsection}{Entradas}{16}{subsubsection*.9}\protected@file@percent }
\@writefile{toc}{\contentsline {subsubsection}{Comandos}{16}{subsubsection*.10}\protected@file@percent }
\@writefile{toc}{\contentsline {subsection}{\numberline {7.6.3}IUIF02-03 Pantalla de Planes de Estudio}{16}{subsection.7.6.3}\protected@file@percent }
\@writefile{toc}{\contentsline {subsubsection}{Objetivo}{16}{subsubsection*.11}\protected@file@percent }
\@writefile{toc}{\contentsline {subsubsection}{Dise\~no}{16}{subsubsection*.12}\protected@file@percent }
\@writefile{lof}{\contentsline {figure}{\numberline {7.9}{\ignorespaces IUIF02-03 Pantalla de Planes de Estudio}}{16}{figure.7.9}\protected@file@percent }
\newlabel{IUIF02-03}{{7.9}{16}{IUIF02-03 Pantalla de Planes de Estudio}{figure.7.9}{}}
\@writefile{toc}{\contentsline {subsubsection}{Salidas}{17}{subsubsection*.13}\protected@file@percent }
\@writefile{toc}{\contentsline {subsubsection}{Entradas}{17}{subsubsection*.14}\protected@file@percent }
\@writefile{toc}{\contentsline {subsubsection}{Comandos}{17}{subsubsection*.15}\protected@file@percent }
\@writefile{toc}{\contentsline {subsubsection}{Mensajes}{17}{subsubsection*.16}\protected@file@percent }
\@writefile{toc}{\contentsline {subsection}{\numberline {7.6.4}IUIF02-04 Pantalla de Registro}{17}{subsection.7.6.4}\protected@file@percent }
\@writefile{toc}{\contentsline {subsubsection}{Dise\~no}{17}{subsubsection*.17}\protected@file@percent }
\@writefile{toc}{\contentsline {subsubsection}{Salidas}{17}{subsubsection*.18}\protected@file@percent }
\@writefile{toc}{\contentsline {subsubsection}{Entradas}{17}{subsubsection*.19}\protected@file@percent }
\@writefile{toc}{\contentsline {subsubsection}{Comandos}{17}{subsubsection*.20}\protected@file@percent }
\@writefile{lof}{\contentsline {figure}{\numberline {7.10}{\ignorespaces IUIF02-04 Pantalla de Registro}}{18}{figure.7.10}\protected@file@percent }
\newlabel{IUIF02-04}{{7.10}{18}{IUIF02-04 Pantalla de Registro}{figure.7.10}{}}
\@writefile{toc}{\contentsline {subsubsection}{Mensajes}{18}{subsubsection*.21}\protected@file@percent }
\@writefile{toc}{\contentsline {subsection}{\numberline {7.6.5}IUIF02-05 Pantalla de Consulta}{18}{subsection.7.6.5}\protected@file@percent }
\@writefile{toc}{\contentsline {subsubsection}{Objetivo}{18}{subsubsection*.22}\protected@file@percent }
\@writefile{toc}{\contentsline {subsubsection}{Dise\~no}{18}{subsubsection*.23}\protected@file@percent }
\@writefile{lof}{\contentsline {figure}{\numberline {7.11}{\ignorespaces IUIF02-05 Pantalla de Consulta}}{19}{figure.7.11}\protected@file@percent }
\newlabel{IUIF02-05}{{7.11}{19}{IUIF02-05 Pantalla de Consulta}{figure.7.11}{}}
\@writefile{toc}{\contentsline {subsubsection}{Salidas}{19}{subsubsection*.24}\protected@file@percent }
\@writefile{toc}{\contentsline {subsubsection}{Entradas}{19}{subsubsection*.25}\protected@file@percent }
\@writefile{toc}{\contentsline {subsubsection}{Comandos}{19}{subsubsection*.26}\protected@file@percent }
\@writefile{toc}{\contentsline {subsection}{\numberline {7.6.6}IUIF02-05 Pantalla de Consulta}{19}{subsection.7.6.6}\protected@file@percent }
\@writefile{toc}{\contentsline {subsubsection}{Objetivo}{19}{subsubsection*.27}\protected@file@percent }
\@writefile{toc}{\contentsline {subsubsection}{Dise\~no}{19}{subsubsection*.28}\protected@file@percent }
\@writefile{toc}{\contentsline {subsubsection}{Salidas}{19}{subsubsection*.29}\protected@file@percent }
\@writefile{lof}{\contentsline {figure}{\numberline {7.12}{\ignorespaces IUIF02-05 Pantalla de Consulta}}{20}{figure.7.12}\protected@file@percent }
\newlabel{IUIF02-05}{{7.12}{20}{IUIF02-05 Pantalla de Consulta}{figure.7.12}{}}
\@writefile{toc}{\contentsline {subsubsection}{Entradas}{20}{subsubsection*.30}\protected@file@percent }
\@writefile{toc}{\contentsline {subsubsection}{Comandos}{20}{subsubsection*.31}\protected@file@percent }
\@writefile{toc}{\contentsline {subsection}{\numberline {7.6.7}UIIF03 Pantalla Gestionar Programa Acad\IeC {\'e}mico}{20}{subsection.7.6.7}\protected@file@percent }
\@writefile{toc}{\contentsline {subsubsection}{Objetivo}{20}{subsubsection*.32}\protected@file@percent }
\@writefile{toc}{\contentsline {subsubsection}{Dise\~no}{20}{subsubsection*.33}\protected@file@percent }
\@writefile{toc}{\contentsline {subsubsection}{Salidas}{20}{subsubsection*.34}\protected@file@percent }
\@writefile{lof}{\contentsline {figure}{\numberline {7.13}{\ignorespaces UIIF03GestionarProgramaAcademico(1) Gestionar programa acad\IeC {\'e}mico}}{21}{figure.7.13}\protected@file@percent }
\newlabel{UIIF03GestionarProgramaAcademico(1)}{{7.13}{21}{UIIF03GestionarProgramaAcademico(1) Gestionar programa académico}{figure.7.13}{}}
\@writefile{toc}{\contentsline {subsubsection}{Entradas}{21}{subsubsection*.35}\protected@file@percent }
\@writefile{toc}{\contentsline {subsubsection}{Comandos}{21}{subsubsection*.36}\protected@file@percent }
\@writefile{toc}{\contentsline {subsection}{\numberline {7.6.8}UIIF03 Pantalla Gestionar Programa Acad\IeC {\'e}mico (2)}{21}{subsection.7.6.8}\protected@file@percent }
\@writefile{toc}{\contentsline {subsubsection}{Objetivo}{21}{subsubsection*.37}\protected@file@percent }
\@writefile{toc}{\contentsline {subsubsection}{Dise\~no}{22}{subsubsection*.38}\protected@file@percent }
\@writefile{lof}{\contentsline {figure}{\numberline {7.14}{\ignorespaces UIIF03GestionarProgramaAcademico(2) Gestionar programa acad\IeC {\'e}mico (2)}}{22}{figure.7.14}\protected@file@percent }
\newlabel{UIIF03GestionarProgramaAcademico(2)}{{7.14}{22}{UIIF03GestionarProgramaAcademico(2) Gestionar programa académico (2)}{figure.7.14}{}}
\@writefile{toc}{\contentsline {subsubsection}{Salidas}{22}{subsubsection*.39}\protected@file@percent }
\@writefile{toc}{\contentsline {subsubsection}{Entradas}{22}{subsubsection*.40}\protected@file@percent }
\@writefile{toc}{\contentsline {subsubsection}{Comandos}{22}{subsubsection*.41}\protected@file@percent }
\@writefile{toc}{\contentsline {subsection}{\numberline {7.6.9}UIIF03 Pantalla Gestionar Programa Acad\IeC {\'e}mico (3)}{23}{subsection.7.6.9}\protected@file@percent }
\@writefile{toc}{\contentsline {subsubsection}{Objetivo}{23}{subsubsection*.42}\protected@file@percent }
\@writefile{toc}{\contentsline {subsubsection}{Dise\~no}{23}{subsubsection*.43}\protected@file@percent }
\@writefile{lof}{\contentsline {figure}{\numberline {7.15}{\ignorespaces UIIF03GestionarProgramaAcademico(3) Gestionar programa acad\IeC {\'e}mico (3)}}{23}{figure.7.15}\protected@file@percent }
\newlabel{UIIF03GestionarProgramaAcademico(3)}{{7.15}{23}{UIIF03GestionarProgramaAcademico(3) Gestionar programa académico (3)}{figure.7.15}{}}
\@writefile{toc}{\contentsline {subsubsection}{Salidas}{23}{subsubsection*.44}\protected@file@percent }
\@writefile{toc}{\contentsline {subsubsection}{Entradas}{23}{subsubsection*.45}\protected@file@percent }
\@writefile{toc}{\contentsline {subsubsection}{Comandos}{24}{subsubsection*.46}\protected@file@percent }
\@writefile{toc}{\contentsline {subsection}{\numberline {7.6.10}UIIF03.1 Programas Acad\IeC {\'e}micos (0)}{24}{subsection.7.6.10}\protected@file@percent }
\@writefile{toc}{\contentsline {subsubsection}{Objetivo}{24}{subsubsection*.47}\protected@file@percent }
\@writefile{toc}{\contentsline {subsubsection}{Dise\~no}{24}{subsubsection*.48}\protected@file@percent }
\@writefile{lof}{\contentsline {figure}{\numberline {7.16}{\ignorespaces UIIF03.1RegistrarProgramasAcademicos(0) Programas Acad\IeC {\'e}micos}}{24}{figure.7.16}\protected@file@percent }
\newlabel{UIIF03.1RegistrarProgramasAcademicos(0)}{{7.16}{24}{UIIF03.1RegistrarProgramasAcademicos(0) Programas Académicos}{figure.7.16}{}}
\@writefile{toc}{\contentsline {subsubsection}{Salidas}{25}{subsubsection*.49}\protected@file@percent }
\@writefile{toc}{\contentsline {subsection}{\numberline {7.6.11}UIIF03.1 Nuevo Programa Acad\IeC {\'e}mico (1)}{25}{subsection.7.6.11}\protected@file@percent }
\@writefile{toc}{\contentsline {subsubsection}{Objetivo}{25}{subsubsection*.50}\protected@file@percent }
\@writefile{toc}{\contentsline {subsubsection}{Dise\~no}{25}{subsubsection*.51}\protected@file@percent }
\@writefile{lof}{\contentsline {figure}{\numberline {7.17}{\ignorespaces UIIF03.1RegistrarProgramasAcademicos(1) Nuevo Programa Acad\IeC {\'e}mico}}{25}{figure.7.17}\protected@file@percent }
\newlabel{UIIF03.1RegistrarProgramasAcademicos(1)}{{7.17}{25}{UIIF03.1RegistrarProgramasAcademicos(1) Nuevo Programa Académico}{figure.7.17}{}}
\@writefile{toc}{\contentsline {subsubsection}{Salidas}{25}{subsubsection*.52}\protected@file@percent }
\@writefile{toc}{\contentsline {subsubsection}{Entradas}{26}{subsubsection*.53}\protected@file@percent }
\@writefile{toc}{\contentsline {subsection}{\numberline {7.6.12}UIIF03.1 Pantalla campos obligatorios (2)}{26}{subsection.7.6.12}\protected@file@percent }
\@writefile{toc}{\contentsline {subsubsection}{Objetivo}{26}{subsubsection*.54}\protected@file@percent }
\@writefile{toc}{\contentsline {subsubsection}{Dise\~no}{26}{subsubsection*.55}\protected@file@percent }
\@writefile{lof}{\contentsline {figure}{\numberline {7.18}{\ignorespaces UIIF03.1RegistrarProgramasAcademicos(2) Campos Obligatorios}}{26}{figure.7.18}\protected@file@percent }
\newlabel{UIIF03.1RegistrarProgramasAcademicos(2)}{{7.18}{26}{UIIF03.1RegistrarProgramasAcademicos(2) Campos Obligatorios}{figure.7.18}{}}
\@writefile{toc}{\contentsline {subsubsection}{Salidas}{26}{subsubsection*.56}\protected@file@percent }
\@writefile{toc}{\contentsline {subsubsection}{Entradas}{26}{subsubsection*.57}\protected@file@percent }
\@writefile{toc}{\contentsline {subsection}{\numberline {7.6.13}UIIF03.1 Pantalla Programa acad\IeC {\'e}mico existente (3)}{27}{subsection.7.6.13}\protected@file@percent }
\@writefile{toc}{\contentsline {subsubsection}{Objetivo}{27}{subsubsection*.58}\protected@file@percent }
\@writefile{toc}{\contentsline {subsubsection}{Dise\~no}{27}{subsubsection*.59}\protected@file@percent }
\@writefile{lof}{\contentsline {figure}{\numberline {7.19}{\ignorespaces UIIF03.1RegistrarProgramasAcademicos(3) Programa acad\IeC {\'e}mico exitente}}{27}{figure.7.19}\protected@file@percent }
\newlabel{UIIF03.1RegistrarProgramasAcademicos(3)}{{7.19}{27}{UIIF03.1RegistrarProgramasAcademicos(3) Programa académico exitente}{figure.7.19}{}}
\@writefile{toc}{\contentsline {subsubsection}{Salidas}{27}{subsubsection*.60}\protected@file@percent }
\@writefile{toc}{\contentsline {subsubsection}{Entradas}{27}{subsubsection*.61}\protected@file@percent }
\@writefile{toc}{\contentsline {subsection}{\numberline {7.6.14}UIIF03.1 Pantalla cancelar operaci\'on (4)}{27}{subsection.7.6.14}\protected@file@percent }
\@writefile{toc}{\contentsline {subsubsection}{Objetivo}{28}{subsubsection*.62}\protected@file@percent }
\@writefile{toc}{\contentsline {subsubsection}{Dise\~no}{28}{subsubsection*.63}\protected@file@percent }
\@writefile{lof}{\contentsline {figure}{\numberline {7.20}{\ignorespaces UIIF03.1RegistrarProgramasAcademicos(4) Abandonar Operaci\'on}}{28}{figure.7.20}\protected@file@percent }
\newlabel{UIIF03.1RegistrarProgramasAcademicos(4)}{{7.20}{28}{UIIF03.1RegistrarProgramasAcademicos(4) Abandonar Operaci\'on}{figure.7.20}{}}
\@writefile{toc}{\contentsline {subsubsection}{Salidas}{28}{subsubsection*.64}\protected@file@percent }
\@writefile{toc}{\contentsline {subsubsection}{Entradas}{28}{subsubsection*.65}\protected@file@percent }
\@writefile{toc}{\contentsline {subsection}{\numberline {7.6.15}UIIF03.1 Pantalla campo no valido (5)}{28}{subsection.7.6.15}\protected@file@percent }
\@writefile{toc}{\contentsline {subsubsection}{Objetivo}{29}{subsubsection*.66}\protected@file@percent }
\@writefile{toc}{\contentsline {subsubsection}{Dise\~no}{29}{subsubsection*.67}\protected@file@percent }
\@writefile{lof}{\contentsline {figure}{\numberline {7.21}{\ignorespaces UIIF03.1RegistrarProgramasAcademicos(5) Campo no valido}}{29}{figure.7.21}\protected@file@percent }
\newlabel{UIIF03.1RegistrarProgramasAcademicos(5)}{{7.21}{29}{UIIF03.1RegistrarProgramasAcademicos(5) Campo no valido}{figure.7.21}{}}
\@writefile{toc}{\contentsline {subsubsection}{Salidas}{29}{subsubsection*.68}\protected@file@percent }
\@writefile{toc}{\contentsline {subsubsection}{Entradas}{29}{subsubsection*.69}\protected@file@percent }
\@writefile{toc}{\contentsline {subsection}{\numberline {7.6.16}UIIF03.1 Pantalla registro \IeC {\'e}xitoso (6)}{29}{subsection.7.6.16}\protected@file@percent }
\@writefile{toc}{\contentsline {subsubsection}{Objetivo}{29}{subsubsection*.70}\protected@file@percent }
\@writefile{toc}{\contentsline {subsubsection}{Dise\~no}{30}{subsubsection*.71}\protected@file@percent }
\@writefile{lof}{\contentsline {figure}{\numberline {7.22}{\ignorespaces UIIF03.1RegistrarProgramasAcademicos(6) Registro \IeC {\'e}xitoso}}{30}{figure.7.22}\protected@file@percent }
\newlabel{UIIF03.1RegistrarProgramasAcademicos(6)}{{7.22}{30}{UIIF03.1RegistrarProgramasAcademicos(6) Registro éxitoso}{figure.7.22}{}}
\@writefile{toc}{\contentsline {subsubsection}{Salidas}{30}{subsubsection*.72}\protected@file@percent }
\@writefile{toc}{\contentsline {subsubsection}{Entradas}{30}{subsubsection*.73}\protected@file@percent }
\@writefile{toc}{\contentsline {subsection}{\numberline {7.6.17}UIIF04 Pantalla Asociar Programa Acad\IeC {\'e}mico a unidad Acad\IeC {\'e}mica (1)}{30}{subsection.7.6.17}\protected@file@percent }
\@writefile{toc}{\contentsline {subsubsection}{Objetivo}{30}{subsubsection*.74}\protected@file@percent }
\@writefile{toc}{\contentsline {subsubsection}{Dise\~no}{31}{subsubsection*.75}\protected@file@percent }
\@writefile{lof}{\contentsline {figure}{\numberline {7.23}{\ignorespaces UIIF04AsociarProgramaAcademicoAUnidadAcademica(1) Asociar programa acad\IeC {\'e}mico a unidad acad\IeC {\'e}mica(1)}}{31}{figure.7.23}\protected@file@percent }
\newlabel{UIIF04AsociarProgramaAcademicoAUnidadAcademica(1)}{{7.23}{31}{UIIF04AsociarProgramaAcademicoAUnidadAcademica(1) Asociar programa académico a unidad académica(1)}{figure.7.23}{}}
\@writefile{toc}{\contentsline {subsubsection}{Salidas}{31}{subsubsection*.76}\protected@file@percent }
\@writefile{toc}{\contentsline {subsubsection}{Entradas}{31}{subsubsection*.77}\protected@file@percent }
\@writefile{toc}{\contentsline {subsubsection}{Comandos}{31}{subsubsection*.78}\protected@file@percent }
\@writefile{toc}{\contentsline {subsection}{\numberline {7.6.18}UIIF04 Pantalla Asociar Programa Acad\IeC {\'e}mico a unidad Acad\IeC {\'e}mica (2)}{32}{subsection.7.6.18}\protected@file@percent }
\@writefile{toc}{\contentsline {subsubsection}{Objetivo}{32}{subsubsection*.79}\protected@file@percent }
\@writefile{toc}{\contentsline {subsubsection}{Dise\~no}{32}{subsubsection*.80}\protected@file@percent }
\@writefile{lof}{\contentsline {figure}{\numberline {7.24}{\ignorespaces UIIF04AsociarProgramaAcademicoAUnidadAcademica(2) Asociar programa acad\IeC {\'e}mico a unidad acad\IeC {\'e}mica(2)}}{32}{figure.7.24}\protected@file@percent }
\newlabel{UIIF04AsociarProgramaAcademicoAUnidadAcademica(2)}{{7.24}{32}{UIIF04AsociarProgramaAcademicoAUnidadAcademica(2) Asociar programa académico a unidad académica(2)}{figure.7.24}{}}
\@writefile{toc}{\contentsline {subsubsection}{Salidas}{32}{subsubsection*.81}\protected@file@percent }
\@writefile{toc}{\contentsline {subsubsection}{Entradas}{32}{subsubsection*.82}\protected@file@percent }
\@writefile{toc}{\contentsline {subsubsection}{Comandos}{33}{subsubsection*.83}\protected@file@percent }
\@writefile{toc}{\contentsline {subsection}{\numberline {7.6.19}UIIF04 Pantalla Asociar Programa Acad\IeC {\'e}mico a unidad Acad\IeC {\'e}mica (3)}{33}{subsection.7.6.19}\protected@file@percent }
\@writefile{toc}{\contentsline {subsubsection}{Objetivo}{33}{subsubsection*.84}\protected@file@percent }
\@writefile{toc}{\contentsline {subsubsection}{Dise\~no}{33}{subsubsection*.85}\protected@file@percent }
\@writefile{lof}{\contentsline {figure}{\numberline {7.25}{\ignorespaces UIIF04AsociarProgramaAcademicoAUnidadAcademica(3) Asociar programa acad\IeC {\'e}mico a unidad acad\IeC {\'e}mica(3)}}{33}{figure.7.25}\protected@file@percent }
\newlabel{UIIF04AsociarProgramaAcademicoAUnidadAcademica(3)}{{7.25}{33}{UIIF04AsociarProgramaAcademicoAUnidadAcademica(3) Asociar programa académico a unidad académica(3)}{figure.7.25}{}}
\@writefile{toc}{\contentsline {subsubsection}{Salidas}{34}{subsubsection*.86}\protected@file@percent }
\@writefile{toc}{\contentsline {subsubsection}{Entradas}{34}{subsubsection*.87}\protected@file@percent }
\@writefile{toc}{\contentsline {subsubsection}{Comandos}{34}{subsubsection*.88}\protected@file@percent }
\@writefile{toc}{\contentsline {subsection}{\numberline {7.6.20}UIIF04 Pantalla Asociar Programa Acad\IeC {\'e}mico a unidad Acad\IeC {\'e}mica (4)}{34}{subsection.7.6.20}\protected@file@percent }
\@writefile{toc}{\contentsline {subsubsection}{Objetivo}{34}{subsubsection*.89}\protected@file@percent }
\@writefile{toc}{\contentsline {subsubsection}{Dise\~no}{34}{subsubsection*.90}\protected@file@percent }
\@writefile{toc}{\contentsline {subsubsection}{Salidas}{34}{subsubsection*.91}\protected@file@percent }
\@writefile{toc}{\contentsline {subsubsection}{Entradas}{34}{subsubsection*.92}\protected@file@percent }
\@writefile{toc}{\contentsline {subsubsection}{Comandos}{34}{subsubsection*.93}\protected@file@percent }
\@writefile{lof}{\contentsline {figure}{\numberline {7.26}{\ignorespaces UIIF04AsociarProgramaAcademicoAUnidadAcademica(4) Asociar programa acad\IeC {\'e}mico a unidad acad\IeC {\'e}mica(4)}}{35}{figure.7.26}\protected@file@percent }
\newlabel{UIIF04AsociarProgramaAcademicoAUnidadAcademica(4)}{{7.26}{35}{UIIF04AsociarProgramaAcademicoAUnidadAcademica(4) Asociar programa académico a unidad académica(4)}{figure.7.26}{}}
\@writefile{toc}{\contentsline {chapter}{\numberline {8}Casos de uso}{36}{chapter.8}\protected@file@percent }
\@writefile{lof}{\addvspace {10\p@ }}
\@writefile{lot}{\addvspace {10\p@ }}
\gdef \LT@i {\LT@entry 
    {1}{111.50314pt}\LT@entry 
    {1}{364.9pt}}
\@writefile{toc}{\contentsline {section}{\numberline {8.1}CUIF1 Gestionar unidades de aprendizaje en l\'inea}{37}{section.8.1}\protected@file@percent }
\@writefile{toc}{\contentsline {subsection}{\numberline {8.1.1}Descripci\IeC {\'o}n completa}{37}{subsection.8.1.1}\protected@file@percent }
\@writefile{toc}{\contentsline {subsection}{\numberline {8.1.2}Atributos importantes}{37}{subsection.8.1.2}\protected@file@percent }
\@writefile{toc}{\contentsline {subsection}{\numberline {8.1.3}Trayectorias del Caso de Uso}{37}{subsection.8.1.3}\protected@file@percent }
\newlabel{CU1Areas}{{2}{37}{Casos de uso}{Item.2}{}}
\gdef \LT@ii {\LT@entry 
    {1}{111.50314pt}\LT@entry 
    {1}{364.9pt}}
\@writefile{toc}{\contentsline {section}{\numberline {8.2}CUIF1.1 Registrar Unidad de Aprendizaje en linea}{38}{section.8.2}\protected@file@percent }
\@writefile{toc}{\contentsline {subsection}{\numberline {8.2.1}Descripci\IeC {\'o}n completa}{38}{subsection.8.2.1}\protected@file@percent }
\@writefile{toc}{\contentsline {subsection}{\numberline {8.2.2}Atributos importantes}{38}{subsection.8.2.2}\protected@file@percent }
\@writefile{toc}{\contentsline {subsection}{\numberline {8.2.3}Trayectorias del Caso de Uso}{38}{subsection.8.2.3}\protected@file@percent }
\newlabel{CU1Areas}{{1}{38}{Casos de uso}{Item.3}{}}
\gdef \LT@iii {\LT@entry 
    {1}{111.50314pt}\LT@entry 
    {1}{364.9pt}}
\@writefile{toc}{\contentsline {section}{\numberline {8.3}CUIF1.2 Consultar unidad de aprendizaje}{40}{section.8.3}\protected@file@percent }
\@writefile{toc}{\contentsline {subsection}{\numberline {8.3.1}Descripci\IeC {\'o}n completa}{40}{subsection.8.3.1}\protected@file@percent }
\@writefile{toc}{\contentsline {subsection}{\numberline {8.3.2}Atributos importantes}{40}{subsection.8.3.2}\protected@file@percent }
\@writefile{toc}{\contentsline {subsection}{\numberline {8.3.3}Trayectorias del Caso de Uso}{40}{subsection.8.3.3}\protected@file@percent }
\gdef \LT@iv {\LT@entry 
    {1}{111.50314pt}\LT@entry 
    {1}{364.9pt}}
\@writefile{toc}{\contentsline {section}{\numberline {8.4}CUIF1.3 Eliminar Unidad de Aprendizaje}{42}{section.8.4}\protected@file@percent }
\@writefile{toc}{\contentsline {subsection}{\numberline {8.4.1}Descripci\IeC {\'o}n completa}{42}{subsection.8.4.1}\protected@file@percent }
\@writefile{toc}{\contentsline {subsection}{\numberline {8.4.2}Atributos importantes}{42}{subsection.8.4.2}\protected@file@percent }
\@writefile{toc}{\contentsline {subsection}{\numberline {8.4.3}Trayectorias del Caso de Uso}{42}{subsection.8.4.3}\protected@file@percent }
\gdef \LT@v {\LT@entry 
    {1}{111.50314pt}\LT@entry 
    {1}{364.9pt}}
\@writefile{toc}{\contentsline {section}{\numberline {8.5}CUIF02 Gestionar Planes de Estudio.}{44}{section.8.5}\protected@file@percent }
\@writefile{toc}{\contentsline {subsection}{\numberline {8.5.1}Descripci\IeC {\'o}n completa}{44}{subsection.8.5.1}\protected@file@percent }
\@writefile{toc}{\contentsline {subsection}{\numberline {8.5.2}Atributos importantes}{44}{subsection.8.5.2}\protected@file@percent }
\@writefile{toc}{\contentsline {subsection}{\numberline {8.5.3}Trayectorias del Caso de Uso}{44}{subsection.8.5.3}\protected@file@percent }
\gdef \LT@vi {\LT@entry 
    {1}{111.50314pt}\LT@entry 
    {1}{364.9pt}}
\@writefile{toc}{\contentsline {section}{\numberline {8.6}CUIF02.1 - Registrar Plan de Estudio. }{46}{section.8.6}\protected@file@percent }
\@writefile{toc}{\contentsline {subsection}{\numberline {8.6.1}Descripci\IeC {\'o}n completa}{46}{subsection.8.6.1}\protected@file@percent }
\@writefile{toc}{\contentsline {subsection}{\numberline {8.6.2}Atributos importantes}{46}{subsection.8.6.2}\protected@file@percent }
\@writefile{toc}{\contentsline {subsection}{\numberline {8.6.3}Trayectorias del Caso de Uso}{46}{subsection.8.6.3}\protected@file@percent }
\gdef \LT@vii {\LT@entry 
    {1}{111.50314pt}\LT@entry 
    {1}{364.9pt}}
\@writefile{toc}{\contentsline {section}{\numberline {8.7}CUIF02.2 - Consultar Plan de Estudios }{48}{section.8.7}\protected@file@percent }
\@writefile{toc}{\contentsline {subsection}{\numberline {8.7.1}Descripci\IeC {\'o}n completa}{48}{subsection.8.7.1}\protected@file@percent }
\@writefile{toc}{\contentsline {subsection}{\numberline {8.7.2}Atributos importantes}{48}{subsection.8.7.2}\protected@file@percent }
\@writefile{toc}{\contentsline {subsection}{\numberline {8.7.3}Trayectorias del Caso de Uso}{48}{subsection.8.7.3}\protected@file@percent }
\gdef \LT@viii {\LT@entry 
    {1}{111.50314pt}\LT@entry 
    {1}{364.9pt}}
\@writefile{toc}{\contentsline {section}{\numberline {8.8}CUIF02.3 - Eliminar un Plan de Estudios }{49}{section.8.8}\protected@file@percent }
\@writefile{toc}{\contentsline {subsection}{\numberline {8.8.1}Descripci\IeC {\'o}n completa}{49}{subsection.8.8.1}\protected@file@percent }
\@writefile{toc}{\contentsline {subsection}{\numberline {8.8.2}Atributos importantes}{49}{subsection.8.8.2}\protected@file@percent }
\@writefile{toc}{\contentsline {subsection}{\numberline {8.8.3}Trayectorias del Caso de Uso}{49}{subsection.8.8.3}\protected@file@percent }
\gdef \LT@ix {\LT@entry 
    {1}{111.50314pt}\LT@entry 
    {1}{364.9pt}}
\@writefile{toc}{\contentsline {section}{\numberline {8.9}CUIF03 Gestionar programas acad\IeC {\'e}micos}{51}{section.8.9}\protected@file@percent }
\@writefile{toc}{\contentsline {subsection}{\numberline {8.9.1}Descripci\IeC {\'o}n completa}{51}{subsection.8.9.1}\protected@file@percent }
\@writefile{toc}{\contentsline {subsection}{\numberline {8.9.2}Atributos importantes}{51}{subsection.8.9.2}\protected@file@percent }
\@writefile{toc}{\contentsline {subsection}{\numberline {8.9.3}Trayectorias del Caso de Uso}{51}{subsection.8.9.3}\protected@file@percent }
\gdef \LT@x {\LT@entry 
    {1}{111.50314pt}\LT@entry 
    {1}{364.9pt}}
\@writefile{toc}{\contentsline {section}{\numberline {8.10}CUIF03.1 Registrar programa acad\IeC {\'e}mico}{53}{section.8.10}\protected@file@percent }
\@writefile{toc}{\contentsline {subsection}{\numberline {8.10.1}Descripci\IeC {\'o}n completa}{53}{subsection.8.10.1}\protected@file@percent }
\@writefile{toc}{\contentsline {subsection}{\numberline {8.10.2}Atributos importantes}{53}{subsection.8.10.2}\protected@file@percent }
\@writefile{toc}{\contentsline {subsection}{\numberline {8.10.3}Trayectorias del Caso de Uso}{53}{subsection.8.10.3}\protected@file@percent }
\gdef \LT@xi {\LT@entry 
    {1}{111.50314pt}\LT@entry 
    {1}{364.9pt}}
\@writefile{toc}{\contentsline {section}{\numberline {8.11}CUIF04 Asociar programa acad\IeC {\'e}mico a unidad acad\IeC {\'e}mica}{55}{section.8.11}\protected@file@percent }
\@writefile{toc}{\contentsline {subsection}{\numberline {8.11.1}Descripci\IeC {\'o}n completa}{55}{subsection.8.11.1}\protected@file@percent }
\@writefile{toc}{\contentsline {subsection}{\numberline {8.11.2}Atributos importantes}{55}{subsection.8.11.2}\protected@file@percent }
\@writefile{toc}{\contentsline {subsection}{\numberline {8.11.3}Trayectorias del Caso de Uso}{55}{subsection.8.11.3}\protected@file@percent }
